https://www.bundestag.de/resource/blob/866350/ec2231feaa8519c8db90a4f657ea2c67/20001-data.xml
https://www.bundestag.de/resource/blob/868600/951210bae357f59adac7978b93390212/20002-data.xml
https://www.bundestag.de/resource/blob/869486/bbae732310ed76b57435f1c982035382/20003-data.xml
https://www.bundestag.de/resource/blob/870596/e6b6a166ee651652e37c752a787ff113/20004-data.xml
https://www.bundestag.de/resource/blob/871012/12b36dddb4a43f7800e2d3a4dbe96750/20005-data.xml
https://www.bundestag.de/resource/blob/871140/3bfa30dd149d7a82281b3ffd73e1f021/20006-data.xml
https://www.bundestag.de/resource/blob/871514/f12c216035c6568335332420f249b48b/20007-data.xml
https://www.bundestag.de/resource/blob/873178/229a4e937151617f3ac73c337594559c/20008-data.xml
https://www.bundestag.de/resource/blob/873322/93d46f5579a7b6fee22280ab6b7178ef/20009-data.xml
https://www.bundestag.de/resource/blob/876678/a898de55e0897657e790e27c2e7ea5ac/20010-data.xml
https://www.bundestag.de/resource/blob/877126/ea893720fb7a0c1e3fbad81bf93f8e75/20011-data.xml
https://www.bundestag.de/resource/blob/877504/457594d2a376f9efb1bfca1f936ba9d5/20012-data.xml
https://www.bundestag.de/resource/blob/879414/58c863c898e45b9c80dca92717605eab/20013-data.xml
https://www.bundestag.de/resource/blob/879580/ef1c3a49e2f88d94df37dbe0d4c57fd8/20014-data.xml
https://www.bundestag.de/resource/blob/879944/831daf31987e4782b9c6d194a6776fa2/20015-data.xml
https://www.bundestag.de/resource/blob/881384/8eb7662a7f497add1a9c755476415b77/20016-data.xml
https://www.bundestag.de/resource/blob/881518/ff4f6567e6bb232b483190ae0dd9cd54/20017-data.xml
https://www.bundestag.de/resource/blob/881806/6b8e6220659315227eb3b1dbdbdf8e76/20018-data.xml
https://www.bundestag.de/resource/blob/882434/63345d000dff4dac33355f3669e7eec2/20019-data.xml
https://www.bundestag.de/resource/blob/884842/d4f8f013accfe01ece070441da787aff/20020-data.xml
https://www.bundestag.de/resource/blob/884900/90d7ed39e77924cd38f6bc4e822db6f3/20021-data.xml
https://www.bundestag.de/resource/blob/885462/560c980be301d6511501f0cc7859bac6/20022-data.xml
https://www.bundestag.de/resource/blob/885922/ea6510fa33ceba81a3f39fa67157244a/20023-data.xml
https://www.bundestag.de/resource/blob/886416/db86cf1a7233a5b3fae2c1ed3e2f7445/20024-data.xml
https://www.bundestag.de/resource/blob/886606/a8b5974c3cd61a9f56f8a972e8e7ad6f/20025-data.xml
https://www.bundestag.de/resource/blob/887038/062d6bc0522f81a988c24eb8f8ee4aee/20026-data.xml
https://www.bundestag.de/resource/blob/889394/920b7f7c35be77767daf7204ef6dc928/20027-data.xml
https://www.bundestag.de/resource/blob/889400/831daf31987e4782b9c6d194a6776fa2/20028-data.xml
https://www.bundestag.de/resource/blob/889754/df000e3d6807cc88d8e1f81c11905fb4/20029-data.xml
https://www.bundestag.de/resource/blob/891754/02b1d83091d0dff3ac136893dd9b0396/20030-data.xml
https://www.bundestag.de/resource/blob/891934/9d3e30a6b6da8930e4b24a2c71323d89/20031-data.xml
https://www.bundestag.de/resource/blob/892386/b2790c9c10b580721dd2e98967697808/20032-data.xml
https://www.bundestag.de/resource/blob/894350/9987c8c08ef1e027a3f7c4656b3f9a34/20033-data.xml
https://www.bundestag.de/resource/blob/894900/7d3db38a2df36f568b62bcd178f78ea3/20034-data.xml
https://www.bundestag.de/resource/blob/895476/9cb1043fb9957f339d1aed508c822c4f/20035-data.xml
https://www.bundestag.de/resource/blob/896180/903d3e4980d90a7ec12a0602dde3fbf1/20036-data.xml
https://www.bundestag.de/resource/blob/896352/935ec162b90c10e4d3b43a607db8be1c/20037-data.xml
https://www.bundestag.de/resource/blob/896498/0b56835fe05e37108f730d5124a38129/20038-data.xml
https://www.bundestag.de/resource/blob/897506/671551853b84eb704e6fe74d4957cac4/20039-data.xml
https://www.bundestag.de/resource/blob/897634/315cfc5e3243eafee3f7f5125ba0d093/20040-data.xml
https://www.bundestag.de/resource/blob/897878/2abe959292f855f8f2f2bd03be99bc91/20041-data.xml
https://www.bundestag.de/resource/blob/898114/e7ace72bfd61d683b1bd36c50ec0813e/20042-data.xml
https://www.bundestag.de/resource/blob/900378/4304dccc6749727547d24a6fb7eb5e04/20043-data.xml
https://www.bundestag.de/resource/blob/900576/478e78c0c8b449c88187d049f1d1bf1b/20044-data.xml
https://www.bundestag.de/resource/blob/901386/2a11260627e1e60eb570abdcaf1d4c60/20045-data.xml
https://www.bundestag.de/resource/blob/902948/c06bbf98ee0ba61c1ec338254eeccabf/20046-data.xml
https://www.bundestag.de/resource/blob/903222/3ea6ceba3b2f5b3f66a784bc32f347cd/20047-data.xml
https://www.bundestag.de/resource/blob/903616/6b209fed0d9a78b4bd7119810250b1b3/20048-data.xml
